{
        "update_date": "2016.07",
        "size": 19,
        "data": [
                {
                        "CCOM": "01",
                        "COM": "ANDALUCÍ_"
                },
                {
                        "CCOM": "02",
                        "COM": "AR_GÓN"
                },
                {
                        "CCOM": "03",
                        "COM": "PRINCIPADO DE ASTURIAS"
                },
                {
                        "CCOM": "04",
                        "COM": "ISLAS BALEARES"
                },
                {
                        "CCOM": "05",
                        "COM": "CANARIA_"
                },
                {
                        "CCOM": "06",
                        "COM": "CA_TABRIA"
                },
                {
                        "CCOM": "07",
                        "COM": "CASTILLA-LA MANCHA"
                },
                {
                        "CCOM": "08",
                        "COM": "CA_TILLA Y LEÓN"
                },
                {
                        "CCOM": "09",
                        "COM": "CATALUÑA"
                },
                {
                        "CCOM": "10",
                        "COM": "COMUNIDAD VALENCIA_A"
                },
                {
                        "CCOM": "11",
                        "COM": "EXTREMADURA"
                },
                {
                        "CCOM": "12",
                        "COM": "GALICIA"
                },
                {
                        "CCOM": "13",
                        "COM": "LA RIO_A"
                },
                {
                        "CCOM": "14",
                        "COM": "MADRID"
                },
                {
                        "CCOM": "15",
                        "COM": "N_VARRA"
                },
                {
                        "CCOM": "16",
                        "COM": "PAÍS VASCO_"
                },
                {
                        "CCOM": "17",
                        "COM": "MU_CIA"
                },
                {
                        "CCOM": "18",
                        "COM": "CE_TA"
                },
                {
                        "CCOM": "19",
                        "COM": "MELILL_"
                }
        ],
        "warning": "Sandbox mode is turned on"
}